/home/fpga/pciedma/customer_debug/Host_codes/xdma/xdma.ko
/home/fpga/pciedma/customer_debug/Host_codes/xdma/libxdma.o /home/fpga/pciedma/customer_debug/Host_codes/xdma/xdma_cdev.o /home/fpga/pciedma/customer_debug/Host_codes/xdma/cdev_ctrl.o /home/fpga/pciedma/customer_debug/Host_codes/xdma/cdev_events.o /home/fpga/pciedma/customer_debug/Host_codes/xdma/cdev_sgdma.o /home/fpga/pciedma/customer_debug/Host_codes/xdma/cdev_xvc.o /home/fpga/pciedma/customer_debug/Host_codes/xdma/cdev_bypass.o /home/fpga/pciedma/customer_debug/Host_codes/xdma/xdma_mod.o

